{
  "type": "service_account",
  "project_id": "itch-tector",
  "private_key_id": "9c96315bfbd5c283a33fb17ff834e16954f29481",
  "private_key": "-----BEGIN PRIVATE KEY-----\nMIIEvgIBADANBgkqhkiG9w0BAQEFAASCBKgwggSkAgEAAoIBAQDykjsVp60TxYR1\n6lslp0lLRRmi5I03OdorAllo7GBl5lHVV3ZNRIx6IjWJ+L+wj5gyB/7ifLRLQaIJ\nPPFavTCMyyD0i09rVjvVFwdQO/jjXnoIVicIGhtPiYQP4LoQ45Ozjxtk45kCLn3j\nFHj6UycT0PQJUhmGMOR6Cb3oLCXKPxDcYdNpaVYj4ErbTAbyeBx+HzEi6oZeeeTA\nhp+4Ju6ddf1rJDANiDu/lw+dr7YqSrki3ACs3S0IerBirgW9XfCYXDDFY3ZHu31C\nOE9RUwbmSRF/BGOAkxaWc/gAvZa760uJbEgPecN59dPfjYjrwNIVdlDv6zONj1pC\nE3clE5b/AgMBAAECggEAb+3C3riq1+s1tnVHzqWU3+sIK85bTQbgYSUp3Yzo5Ew1\nKYS8nWXKjla3rqz9wrpXp4ph9d9GEE2+N5YL5mtS+jyGveCEaop1fFuub7rkmwHO\nvIcIZqgpPve83Ni88qsYTev0X4bX5RZP11bshdGVwAKUgLKF/ZIU8y0ImJe6bknq\ne3Tk6Qerk+0Q1NuZCeZTP8mi+4kXyrB1YHp/3GzLHSSaSgKz6zbQG1jqrxoVvCSh\nCunVHxN1Yx7NZxGgd6gp2CluKMHh4ArM2ts1s1yXiAklCXVW0kiQ87llC1YpzR3G\n61HCVXVletr6NxB5v1OL4slGjpUQBN8htq7ZgIKd0QKBgQD9eHrG4sYMTE7DDqzV\nYW/n8AEbbZekZ7tYkPxMiAD0/HeWd1QoFzC2sVk0l27FNma/cF94dUZRyXIpxbKg\nW1vwSZ4fumAOF6vgXC69mDtRWqT1bd8lrdS8lEsardDGdNSNeyZbr1whpwp+ETon\nsa/j3/odJ/+IFU3UvPRA8VWCsQKBgQD0/ehKTabge/iMfnpLJAcQv967Lm0Ghy4W\niqe8P9m42gYW4XwlukGZlUHWmvSwnPsfZMHwr5/tcBbOj/QStf4cfq4ZFWiW4TH4\nikm/7DaN0wzOQo4jlEg0nS9QHjI1RcjUhbTprWdNqqL/RYa+4LPA5zU1O+WAeWSt\njPByaONArwKBgQCsF7DEeBOfJfAT31LZTV59SyZ1SOM8bHF2oHmsPGrp6sAHGN26\nmoQohiDa5DYBD/6S2+j2ECm+PdeVJPUyitTRQCprwE6XQtsfaXcSotkjUzfMqtxm\n6K8XmlejtX+aPphRtttERLt43cDx9yBU8v9I6DkYsp979XryhZgQv8ofAQKBgQCZ\ndiL3yERsAbvjZaZ9QwgZ+dYvMhmhKTQ5cok3ZlefbxK5am01xMIqzk/7ef0kVHEJ\nbTf+6EQpmzjuE0Y0IkQW3VN46uwk9tMyeI1R50kU9crjuNUIfG3uZzen3AJfVGNE\nnKyCY9h90hFgDdEl5+MxRqMRwX81RtVF0S8cu47+iQKBgHZ+KYWKn5be/7JVqPQc\n6itKOgdOU1B+FYfZBC2ArNlvtqusDOm2H8pcj00cqfMflsKBTeyiOnFzWStjxG4a\nnD88sB7226ZgUaDDw0sXAGEd1ZlqijN5rSURVw3d8CRTw6pWsfbk4pRyBmQTWYPY\n9K29gdIlu27/M+1S+sAGNF9Q\n-----END PRIVATE KEY-----\n",
  "client_email": "firebase-adminsdk-fetyz@itch-tector.iam.gserviceaccount.com",
  "client_id": "102381200189417232759",
  "auth_uri": "https://accounts.google.com/o/oauth2/auth",
  "token_uri": "https://oauth2.googleapis.com/token",
  "auth_provider_x509_cert_url": "https://www.googleapis.com/oauth2/v1/certs",
  "client_x509_cert_url": "https://www.googleapis.com/robot/v1/metadata/x509/firebase-adminsdk-fetyz%40itch-tector.iam.gserviceaccount.com"
}
